…
# msci %>%mutate(MSCI = gsub("MSCI_", "", Name)) %>% select(-Name) %>% pull(MSCI) %>% unique

msci %>% mutate(MSCI = gsub("MSCI_", "", Name)) %>% 
    select(-Name) %>%
    filter(MSCI == c("RE", "USREIT", "ACWI")) %>% 
    select(date, MSCI, Price) %>%
    spread(MSCI, Price)
```

    ## # A tibble: 4,320 x 4
    ##    date        ACWI    RE USREIT
    ##    <date>     <dbl> <dbl>  <dbl>
    ##  1 1994-12-30    NA 100.      NA
    ##  2 1995-01-04    NA  97.7     NA
    ##  3 1995-01-09    NA  93.7     NA
    ##  4 1995-01-12    NA  92.5     NA
    ##  5 1995-01-17    NA  94.0     NA
    ##  6 1995-01-20    NA  90.9     NA
    ##  7 1995-01-25    NA  89.5     NA
    ##  8 1995-01-30    NA  93.6     NA
    ##  9 1995-02-02    NA  94.4     NA
    ## 10 1995-02-07    NA  97.5     NA
    ## # ... with 4,310 more rows
…
